#GEFID= 1, 1, 0
#COLUMN= 7
#COLUMNINFO= 1, m (meter), sondeertrajectlengte, 1
#COLUMNINFO= 2, MPa (megaPascal), conusweerstand, 2
#COLUMNINFO= 3, m (meter), diepte, 11
#COLUMNINFO= 4, s (seconde), verlopen tijd, 12
#COLUMNINFO= 5, ° (graden), hellingresultante, 8
#COLUMNINFO= 6, MPa (megaPascal), plaatselijke wrijving, 3
#COLUMNINFO= 7, % (procent; MPa/MPa), wrijvingsgetal, 4
#COLUMNSEPARATOR= ;
#COLUMNTEXT= 1, aan
#COLUMNVOID= 1, 999.999
#COLUMNVOID= 2, 999.999
#COLUMNVOID= 3, 999.999
#COLUMNVOID= 4, 99999.9
#COLUMNVOID= 5, 99
#COLUMNVOID= 6, 9.999
#COLUMNVOID= 7, 999.9
#COMPANYID= uitvoerder onderzoek, wordt niet uitgeleverd, -
#FILEDATE= 2019, 11, 08
#FILEOWNER= Basisregistratie Ondergrond
#LASTSCAN= 500
#MEASUREMENTTEXT= 4, F7.5CKE/V, conustype
#MEASUREMENTTEXT= 5, 23/KYP, omschrijving sondeerapparaat
#MEASUREMENTTEXT= 6, NEN 5140 / klasse 2, sondeernorm en kwaliteitsklasse
#MEASUREMENTTEXT= 9, maaiveld, lokaal verticaal referentiepunt
#MEASUREMENTTEXT= 20, onbekend, signaalbewerking uitgevoerd
#MEASUREMENTTEXT= 21, onbekend, bewerking onderbrekingen uitgevoerd
#MEASUREMENTTEXT= 42, -, methode verticale positiebepaling
#MEASUREMENTTEXT= 43, -, methode locatiebepaling
#MEASUREMENTTEXT= 101, bronhouder, 52766179, -
#MEASUREMENTTEXT= 102, archiefoverdracht, kader aanlevering
#MEASUREMENTTEXT= 103, onbekend, kader inwinning
#MEASUREMENTTEXT= 104, uitvoerder locatiebepaling, wordt niet uitgeleverd, -
#MEASUREMENTTEXT= 105, -, -, -
#MEASUREMENTTEXT= 106, uitvoerder verticale positiebepaling, wordt niet uitgeleverd, -
#MEASUREMENTTEXT= 107, -, -, -
#MEASUREMENTTEXT= 109, nee, dissipatietest uitgevoerd
#MEASUREMENTTEXT= 110, onbekend, expertcorrectie uitgevoerd
#MEASUREMENTTEXT= 111, onbekend, aanvullend onderzoek uitgevoerd
#MEASUREMENTTEXT= 112, 2007, 10, 11
#MEASUREMENTTEXT= 113, -, -, -
#MEASUREMENTTEXT= 115, IMBRO/A, kwaliteitsregime
#MEASUREMENTTEXT= 116, 2017, 01, 10, 17, 3, 5
#MEASUREMENTTEXT= 117, voltooid, registratiestatus
#MEASUREMENTTEXT= 118, 2017, 01, 10, 17, 3, 5
#MEASUREMENTTEXT= 119, nee, gecorrigeerd
#MEASUREMENTTEXT= 121, nee, in onderzoek
#MEASUREMENTTEXT= 123, nee, uit registratie genomen
#MEASUREMENTTEXT= 125, nee, weer in registratie genomen
#MEASUREMENTTEXT= 127, 4258, 51.588605, 4.977221
#MEASUREMENTTEXT= 128, RDNAPTRANS2008, toegepaste transformatie
#MEASUREMENTVAR= 1, 1500, mm2 (vierkante millimeter), oppervlakte conuspunt
#MEASUREMENTVAR= 2, 20002, mm2 (vierkante millimeter), oppervlakte kleefmantel
#MEASUREMENTVAR= 3, 0.59, geen, oppervlaktequotiënt conuspunt
#MEASUREMENTVAR= 4, 1.0, geen, oppervlaktequotiënt kleefmantel
#MEASUREMENTVAR= 5, 81, mm (millimeter), afstand conus tot midden kleefmantel
#MEASUREMENTVAR= 12, 0, -, sondeermethode
#MEASUREMENTVAR= 13, 0.00, m (meter), voorgeboord tot
#MEASUREMENTVAR= 16, 9.970, m (meter), einddiepte
#MEASUREMENTVAR= 17, 0, -, stopcriterium
#PROJECTID= BRO
#RECORDSEPARATOR= !
#REPORTCODE= GEF-CPT-Report, 1, 1, 2
#STARTDATE= 1996, 05, 21
#STARTTIME= -, -, -
#TESTID= CPT000000000901
#XYID= 28992, 126588.000, 400046.000
#ZID= 31000, 5.710
#EOH=
0.000;0.004;0.000;9.0;0;9.999;999.9;!
0.020;0.120;0.020;52.0;0;9.999;999.9;!
0.040;0.234;0.040;53.0;0;9.999;999.9;!
0.060;0.310;0.060;54.0;0;9.999;999.9;!
0.080;0.366;0.080;55.0;0;9.999;999.9;!
0.100;0.414;0.100;56.1;0;0.025;3.9;!
0.120;0.691;0.120;57.2;0;0.032;3.9;!
0.140;1.092;0.140;58.3;0;0.039;4.1;!
0.160;1.386;0.160;59.5;0;0.046;4.4;!
0.180;1.466;0.180;60.8;0;0.052;4.3;!
0.200;1.427;0.200;62.1;0;0.058;4.4;!
0.220;1.363;0.220;63.3;0;0.061;4.4;!
0.240;1.324;0.240;64.6;0;0.061;4.4;!
0.260;1.346;0.260;65.9;0;0.059;4.3;!
0.280;1.408;0.280;67.3;0;0.062;4.6;!
0.300;1.334;0.300;68.6;0;0.065;4.9;!
0.320;1.268;0.320;69.9;0;0.064;5.0;!
0.340;1.335;0.340;71.1;0;0.063;5.1;!
0.360;1.153;0.360;72.4;0;0.062;5.3;!
0.380;1.052;0.380;73.6;0;0.063;5.8;!
0.400;0.955;0.400;74.8;0;0.062;6.1;!
0.420;0.857;0.420;76.1;0;0.060;6.3;!
0.440;0.806;0.440;77.4;0;0.058;6.5;!
0.460;0.773;0.460;78.7;0;0.057;6.9;!
0.480;0.785;0.480;80.0;0;0.057;7.2;!
0.500;0.777;0.500;81.3;0;0.055;7.5;!
0.520;0.729;0.520;82.5;0;0.053;7.5;!
0.540;0.649;0.540;83.7;0;0.049;6.8;!
0.560;0.559;0.560;84.9;0;0.048;6.0;!
0.580;0.535;0.580;86.1;0;0.045;4.6;!
0.600;0.730;0.600;87.2;0;0.037;3.3;!
0.620;1.383;0.620;88.5;0;0.031;2.2;!
0.640;2.024;0.640;89.8;0;0.027;1.5;!
0.660;2.381;0.660;91.0;0;0.030;1.3;!
0.680;2.790;0.680;92.0;0;0.029;1.0;!
0.700;3.727;0.700;93.0;0;0.031;1.0;!
0.720;4.649;0.720;93.9;0;0.034;0.9;!
0.740;5.284;0.740;94.9;0;0.036;0.9;!
0.760;5.756;0.760;95.9;0;0.039;0.9;!
0.780;5.741;0.780;99.1;0;0.044;0.9;!
0.800;5.642;0.800;102.7;0;0.050;0.9;!
0.820;5.544;0.820;106.2;0;0.057;1.0;!
0.840;5.445;0.840;109.8;0;0.063;1.2;!
0.860;5.147;0.860;112.4;0;0.071;1.5;!
0.880;4.546;0.880;113.3;0;0.080;1.8;!
0.900;3.918;0.900;114.2;0;0.086;2.1;!
0.920;3.225;0.920;115.1;0;0.089;2.3;!
0.940;2.610;0.940;116.0;0;0.086;2.4;!
0.960;2.240;0.960;117.0;0;0.078;2.4;!
0.980;2.296;0.980;118.0;0;0.068;2.3;!
1.000;2.484;1.000;118.9;0;0.058;2.0;!
1.020;2.683;1.020;119.8;0;0.049;1.7;!
1.040;2.992;1.040;120.7;0;0.045;1.5;!
1.060;3.243;1.060;121.6;0;0.043;1.4;!
1.080;3.405;1.080;122.5;0;0.042;1.3;!
1.100;3.514;1.100;123.4;0;0.042;1.2;!
1.120;3.581;1.120;124.3;0;0.043;1.2;!
1.140;3.598;1.140;125.3;0;0.044;1.2;!
1.160;3.544;1.160;126.2;0;0.045;1.3;!
1.180;3.433;1.180;127.2;0;0.045;1.3;!
1.200;3.315;1.200;128.1;0;0.045;1.3;!
1.220;3.170;1.220;129.1;0;0.045;1.4;!
1.240;2.964;1.240;130.0;0;0.046;1.5;!
1.260;2.652;1.260;130.9;0;0.047;1.7;!
1.280;2.276;1.280;131.8;0;0.049;2.0;!
1.300;1.891;1.300;132.7;0;0.051;2.4;!
1.320;1.537;1.320;133.6;0;0.051;2.7;!
1.340;1.265;1.340;134.4;0;0.048;3.0;!
1.360;1.090;1.360;135.3;0;0.046;3.1;!
1.380;1.023;1.380;136.1;0;0.043;3.1;!
1.400;1.151;1.400;137.0;0;0.037;2.6;!
1.420;1.433;1.420;138.0;0;0.029;2.0;!
1.440;1.694;1.440;138.9;0;0.024;1.6;!
1.460;1.855;1.460;139.8;0;0.024;1.6;!
1.480;1.802;1.480;140.7;0;0.029;1.8;!
1.500;1.611;1.500;141.5;0;0.034;2.2;!
1.520;1.389;1.520;142.4;0;0.034;2.2;!
1.540;1.208;1.540;143.3;0;0.031;2.0;!
1.560;1.095;1.560;144.1;0;0.030;1.6;!
1.580;1.171;1.580;144.9;0;0.029;1.2;!
1.600;2.184;1.600;145.7;0;0.028;0.9;!
1.620;3.730;1.620;146.6;0;0.028;0.7;!
1.640;5.117;1.640;147.6;0;0.032;0.7;!
1.660;6.142;1.660;148.6;0;0.038;0.7;!
1.680;7.046;1.680;149.5;0;0.046;0.7;!
1.700;7.943;1.700;150.6;0;0.054;0.7;!
1.720;8.719;1.720;151.6;0;0.056;0.7;!
1.740;9.401;1.740;152.6;0;0.058;0.6;!
1.760;10.057;1.760;153.6;0;0.060;0.6;!
1.780;10.708;1.780;154.7;0;0.062;0.6;!
1.800;11.047;1.800;157.3;0;0.063;0.6;!
1.820;11.280;1.820;160.5;0;0.074;0.7;!
1.840;11.514;1.840;163.6;0;0.085;0.7;!
1.860;11.747;1.860;166.7;0;0.087;0.7;!
1.880;11.981;1.880;169.8;0;0.092;0.8;!
1.900;11.972;1.900;172.3;0;0.097;0.8;!
1.920;11.400;1.920;173.4;0;0.104;0.9;!
1.940;10.895;1.940;174.6;0;0.114;1.0;!
1.960;10.517;1.960;175.7;0;0.115;1.0;!
1.980;10.060;1.980;176.7;0;0.104;0.9;!
2.000;9.656;2.000;177.8;0;0.102;1.0;!
2.020;9.248;2.020;178.8;0;0.095;1.0;!
2.040;8.855;2.040;179.9;0;0.093;1.0;!
2.060;8.480;2.060;180.8;0;0.090;1.0;!
2.080;8.147;2.080;181.8;0;0.088;1.0;!
2.100;7.857;2.100;182.8;0;0.086;1.0;!
2.120;7.555;2.120;183.8;0;0.082;1.0;!
2.140;7.256;2.140;184.8;0;0.079;1.0;!
2.160;6.942;2.160;185.8;0;0.076;1.0;!
2.180;6.597;2.180;186.8;0;0.073;1.0;!
2.200;6.216;2.200;187.8;0;0.071;1.1;!
2.220;5.767;2.220;188.8;0;0.069;1.1;!
2.240;5.246;2.240;189.7;0;0.067;1.1;!
2.260;4.708;2.260;190.6;0;0.065;1.3;!
2.280;4.161;2.280;191.5;0;0.063;1.4;!
2.300;3.590;2.300;192.4;0;0.062;1.5;!
2.320;2.987;2.320;193.2;0;0.062;1.8;!
2.340;2.339;2.340;194.0;0;0.064;2.1;!
2.360;1.811;2.360;194.7;0;0.065;2.6;!
2.380;1.407;2.380;195.5;0;0.066;3.2;!
2.400;1.130;2.400;196.3;0;0.061;3.6;!
2.420;0.954;2.420;197.2;0;0.053;3.9;!
2.440;0.806;2.440;198.0;0;0.045;4.1;!
2.460;0.651;2.460;198.8;0;0.038;4.1;!
2.480;0.580;2.480;199.6;0;0.032;4.1;!
2.500;0.548;2.500;200.4;0;0.027;3.8;!
2.520;0.532;2.520;201.2;0;0.021;3.3;!
2.540;0.525;2.540;202.0;0;0.016;2.9;!
2.560;0.522;2.560;202.7;0;0.017;3.1;!
2.580;0.519;2.580;203.5;0;0.016;3.0;!
2.600;0.514;2.600;204.3;0;0.016;3.1;!
2.620;0.508;2.620;205.0;0;0.017;3.2;!
2.640;0.491;2.640;205.8;0;0.015;3.0;!
2.660;0.491;2.660;206.7;0;0.014;2.7;!
2.680;0.482;2.680;207.5;0;0.014;2.8;!
2.700;0.480;2.700;208.3;0;0.014;2.7;!
2.720;0.505;2.720;209.1;0;0.014;2.7;!
2.740;0.534;2.740;209.9;0;0.016;3.0;!
2.760;0.546;2.760;210.7;0;0.017;3.2;!
2.780;0.570;2.780;211.5;0;0.019;3.5;!
2.800;0.593;2.800;213.0;0;0.020;3.7;!
2.820;0.600;2.820;215.9;0;0.022;3.9;!
2.840;0.607;2.840;218.8;0;0.024;4.0;!
2.860;0.614;2.860;221.7;0;0.026;4.3;!
2.880;0.621;2.880;224.6;0;0.029;4.8;!
2.900;0.618;2.900;226.4;0;0.031;5.1;!
2.920;0.604;2.920;227.2;0;0.031;5.2;!
2.940;0.590;2.940;228.0;0;0.031;5.2;!
2.960;0.567;2.960;228.8;0;0.030;5.1;!
2.980;0.546;2.980;229.6;0;0.029;5.1;!
3.000;0.530;3.000;230.4;0;0.029;5.1;!
3.020;0.519;3.020;231.2;0;0.028;5.1;!
3.040;0.513;3.040;232.0;0;0.027;4.9;!
3.060;0.516;3.060;232.7;0;0.027;4.9;!
3.080;0.535;3.080;233.5;0;0.027;5.0;!
3.100;0.560;3.100;234.3;0;0.027;4.8;!
3.120;0.575;3.120;235.1;0;0.026;4.8;!
3.140;0.575;3.140;235.9;0;0.027;4.8;!
3.160;0.572;3.160;236.7;0;0.028;4.9;!
3.180;0.570;3.180;237.5;0;0.028;4.8;!
3.200;0.570;3.200;238.4;0;0.028;4.8;!
3.220;0.574;3.220;239.2;0;0.028;4.6;!
3.240;0.593;3.240;239.9;0;0.027;4.4;!
3.260;0.637;3.260;240.7;0;0.028;4.5;!
3.280;0.655;3.280;241.5;0;0.029;4.6;!
3.300;0.663;3.300;242.3;0;0.029;4.4;!
3.320;0.679;3.320;243.0;0;0.029;4.3;!
3.340;0.691;3.340;243.8;0;0.030;4.2;!
3.360;0.729;3.360;244.6;0;0.030;3.6;!
3.380;0.782;3.380;245.4;0;0.030;3.0;!
3.400;0.986;3.400;246.2;0;0.036;3.1;!
3.420;1.533;3.420;247.1;0;0.043;3.5;!
3.440;2.108;3.440;248.0;0;0.049;3.8;!
3.460;1.842;3.460;248.8;0;0.046;3.5;!
3.480;1.450;3.480;249.6;0;0.044;3.3;!
3.500;1.108;3.500;250.4;0;0.041;3.0;!
3.520;0.926;3.520;251.2;0;0.038;2.9;!
3.540;0.967;3.540;251.9;0;0.037;3.0;!
3.560;0.926;3.560;252.7;0;0.032;2.9;!
3.580;0.861;3.580;253.5;0;0.026;2.7;!
3.600;0.814;3.600;254.2;0;0.025;2.7;!
3.620;0.827;3.620;255.0;0;0.025;2.8;!
3.640;0.838;3.640;255.9;0;0.026;2.9;!
3.660;0.865;3.660;256.7;0;0.027;3.0;!
3.680;0.888;3.680;257.5;0;0.029;3.0;!
3.700;0.928;3.700;258.4;0;0.029;2.4;!
3.720;1.100;3.720;259.2;0;0.032;2.3;!
3.740;1.584;3.740;260.0;0;0.039;2.4;!
3.760;2.600;3.760;260.8;0;0.045;2.5;!
3.780;3.152;3.780;261.6;0;0.052;2.7;!
3.800;3.120;3.800;263.7;0;0.058;2.8;!
3.820;2.743;3.820;266.8;0;0.064;2.8;!
3.840;2.367;3.840;269.9;0;0.066;2.7;!
3.860;1.990;3.860;273.1;0;0.067;2.7;!
3.880;1.907;3.880;274.6;0;0.070;2.8;!
3.900;2.116;3.900;275.5;0;0.068;2.5;!
3.920;2.493;3.920;276.3;0;0.066;2.2;!
3.940;2.973;3.940;277.2;0;0.059;1.8;!
3.960;3.672;3.960;278.1;0;0.055;1.5;!
3.980;4.797;3.980;279.0;0;0.053;1.3;!
4.000;5.320;4.000;279.9;0;0.055;1.2;!
4.020;5.324;4.020;280.7;0;0.060;1.3;!
4.040;5.136;4.040;281.6;0;0.068;1.4;!
4.060;4.866;4.060;282.5;0;0.082;1.7;!
4.080;4.539;4.080;283.3;0;0.107;2.3;!
4.100;4.182;4.100;284.2;0;0.100;2.2;!
4.120;3.912;4.120;285.0;0;0.096;2.2;!
4.140;3.704;4.140;285.9;0;0.097;2.4;!
4.160;3.541;4.160;286.8;0;0.097;2.5;!
4.180;3.666;4.180;287.7;0;0.096;2.7;!
4.200;3.508;4.200;288.6;0;0.100;3.0;!
4.220;3.047;4.220;289.5;0;0.095;3.1;!
4.240;2.487;4.240;290.3;0;0.087;3.1;!
4.260;1.995;4.260;291.2;0;0.078;3.1;!
4.280;1.616;4.280;292.0;0;0.068;2.9;!
4.300;1.345;4.300;292.8;0;0.058;2.3;!
4.320;1.342;4.320;293.6;0;0.055;1.8;!
4.340;2.347;4.340;294.4;0;0.053;1.3;!
4.360;4.604;4.360;295.3;0;0.051;1.0;!
4.380;7.215;4.380;296.3;0;0.051;0.9;!
4.400;8.317;4.400;297.3;0;0.057;0.9;!
4.420;8.596;4.420;298.2;0;0.066;0.9;!
4.440;8.751;4.440;299.2;0;0.076;0.9;!
4.460;8.836;4.460;300.2;0;0.083;0.9;!
4.480;8.868;4.480;301.1;0;0.087;0.9;!
4.500;8.881;4.500;302.1;0;0.091;1.0;!
4.520;8.899;4.520;303.0;0;0.093;1.0;!
4.540;8.896;4.540;304.0;0;0.096;1.0;!
4.560;8.858;4.560;304.9;0;0.098;1.1;!
4.580;8.762;4.580;305.9;0;0.098;1.1;!
4.600;8.660;4.600;306.8;0;0.097;1.1;!
4.620;8.545;4.620;307.8;0;0.094;1.0;!
4.640;8.410;4.640;308.7;0;0.091;1.0;!
4.660;8.275;4.660;309.7;0;0.089;1.0;!
4.680;8.131;4.680;310.7;0;0.086;1.0;!
4.700;8.020;4.700;311.7;0;0.082;1.0;!
4.720;7.946;4.720;312.7;0;0.078;0.9;!
4.740;7.902;4.740;313.6;0;0.074;0.9;!
4.760;7.896;4.760;314.5;0;0.070;0.8;!
4.780;7.929;4.780;316.5;0;0.067;0.8;!
4.800;7.981;4.800;319.4;0;0.070;0.8;!
4.820;8.033;4.820;322.4;0;0.072;0.8;!
4.840;8.084;4.840;325.3;0;0.073;0.9;!
4.860;8.143;4.860;328.1;0;0.076;0.9;!
4.880;8.260;4.880;329.0;0;0.078;0.9;!
4.900;8.369;4.900;330.0;0;0.080;0.9;!
4.920;8.498;4.920;331.0;0;0.081;0.9;!
4.940;8.645;4.940;332.0;0;0.081;0.9;!
4.960;8.833;4.960;333.0;0;0.082;0.9;!
4.980;9.057;4.980;334.0;0;0.084;0.9;!
5.000;9.265;5.000;335.0;0;0.085;0.9;!
5.020;9.448;5.020;335.9;0;0.087;0.9;!
5.040;9.625;5.040;336.9;0;0.088;0.9;!
5.060;9.809;5.060;337.8;0;0.090;0.9;!
5.080;9.994;5.080;338.8;0;0.093;0.9;!
5.100;10.196;5.100;339.8;0;0.095;0.9;!
5.120;10.427;5.120;340.7;0;0.096;0.9;!
5.140;10.693;5.140;341.8;0;0.096;0.9;!
5.160;11.012;5.160;342.8;0;0.098;0.9;!
5.180;11.402;5.180;343.9;0;0.099;0.8;!
5.200;11.763;5.200;344.9;0;0.100;0.8;!
5.220;12.132;5.220;346.0;0;0.101;0.8;!
5.240;12.459;5.240;347.0;0;0.100;0.8;!
5.260;12.808;5.260;348.1;0;0.099;0.7;!
5.280;13.271;5.280;349.1;0;0.097;0.7;!
5.300;13.885;5.300;350.1;0;0.092;0.6;!
5.320;14.561;5.320;351.2;0;0.087;0.6;!
5.340;15.246;5.340;352.2;0;0.095;0.6;!
5.360;15.870;5.360;353.4;0;0.089;0.5;!
5.380;16.620;5.380;354.5;0;0.086;0.5;!
5.400;16.572;5.400;355.7;0;0.099;0.6;!
5.420;16.544;5.420;356.9;0;0.092;0.5;!
5.440;16.650;5.440;358.0;0;0.098;0.5;!
5.460;16.915;5.460;359.1;0;0.101;0.6;!
5.480;16.323;5.480;360.2;0;0.099;0.5;!
5.500;16.567;5.500;361.4;0;0.111;0.6;!
5.520;16.565;5.520;362.5;0;0.113;0.6;!
5.540;16.708;5.540;363.6;0;0.099;0.5;!
5.560;17.176;5.560;364.7;0;0.087;0.5;!
5.580;17.577;5.580;365.8;0;0.085;0.4;!
5.600;18.149;5.600;366.9;0;0.120;0.6;!
5.620;18.964;5.620;368.1;0;0.131;0.7;!
5.640;19.767;5.640;369.4;0;0.127;0.6;!
5.660;20.517;5.660;370.6;0;0.124;0.6;!
5.680;20.022;5.680;371.9;0;0.127;0.6;!
5.700;19.812;5.700;373.1;0;0.130;0.6;!
5.720;19.237;5.720;374.3;0;0.132;0.6;!
5.740;18.586;5.740;375.4;0;0.135;0.7;!
5.760;18.110;5.760;377.5;0;0.136;0.7;!
5.780;17.757;5.780;380.4;0;0.135;0.7;!
5.800;17.404;5.800;383.4;0;0.137;0.7;!
5.820;17.051;5.820;386.3;0;0.139;0.8;!
5.840;16.726;5.840;389.1;0;0.144;0.8;!
5.860;16.645;5.860;390.2;0;0.148;0.8;!
5.880;16.559;5.880;391.4;0;0.136;0.8;!
5.900;16.669;5.900;392.6;0;0.137;0.8;!
5.920;16.900;5.920;393.8;0;0.135;0.7;!
5.940;17.154;5.940;394.9;0;0.129;0.7;!
5.960;17.449;5.960;396.1;0;0.128;0.7;!
5.980;17.840;5.980;397.2;0;0.124;0.7;!
6.000;18.152;6.000;398.4;0;0.129;0.7;!
6.020;18.445;6.020;399.5;0;0.128;0.7;!
6.040;18.457;6.040;400.7;0;0.129;0.7;!
6.060;18.517;6.060;401.8;0;0.137;0.7;!
6.080;18.306;6.080;402.9;0;0.143;0.7;!
6.100;18.148;6.100;404.1;0;0.141;0.7;!
6.120;17.887;6.120;405.2;0;0.141;0.7;!
6.140;17.444;6.140;406.4;0;0.141;0.7;!
6.160;17.109;6.160;407.5;0;0.137;0.7;!
6.180;16.933;6.180;408.7;0;0.136;0.7;!
6.200;16.859;6.200;409.9;0;0.135;0.7;!
6.220;16.828;6.220;411.0;0;0.134;0.7;!
6.240;16.854;6.240;412.2;0;0.134;0.7;!
6.260;16.968;6.260;413.3;0;0.133;0.7;!
6.280;17.156;6.280;414.4;0;0.134;0.7;!
6.300;17.388;6.300;415.5;0;0.135;0.7;!
6.320;17.614;6.320;416.6;0;0.137;0.7;!
6.340;17.779;6.340;417.7;0;0.141;0.8;!
6.360;17.794;6.360;418.9;0;0.149;0.8;!
6.380;17.636;6.380;420.1;0;0.155;0.8;!
6.400;17.331;6.400;421.2;0;0.159;0.9;!
6.420;17.022;6.420;422.4;0;0.176;1.0;!
6.440;16.901;6.440;423.6;0;0.171;0.9;!
6.460;16.987;6.460;424.7;0;0.158;0.9;!
6.480;17.292;6.480;425.9;0;0.150;0.8;!
6.500;17.833;6.500;427.1;0;0.150;0.8;!
6.520;18.967;6.520;428.2;0;0.151;0.8;!
6.540;20.182;6.540;429.4;0;0.160;0.8;!
6.560;20.340;6.560;430.6;0;0.154;0.7;!
6.580;20.374;6.580;431.8;0;0.154;0.7;!
6.600;20.663;6.600;432.9;0;0.157;0.7;!
6.620;21.106;6.620;434.1;0;0.167;0.7;!
6.640;21.697;6.640;435.4;0;0.174;0.8;!
6.660;22.328;6.660;436.6;0;0.177;0.8;!
6.680;22.922;6.680;437.8;0;0.178;0.7;!
6.700;23.340;6.700;439.1;0;0.186;0.8;!
6.720;23.677;6.720;440.3;0;0.183;0.7;!
6.740;23.880;6.740;441.5;0;0.179;0.7;!
6.760;23.983;6.760;442.7;0;0.176;0.7;!
6.780;24.066;6.780;443.9;0;0.182;0.7;!
6.800;23.987;6.800;447.6;0;0.193;0.8;!
6.820;23.899;6.820;451.5;0;0.203;0.8;!
6.840;23.812;6.840;455.3;0;0.207;0.8;!
6.860;23.713;6.860;457.6;0;0.209;0.8;!
6.880;23.440;6.880;458.8;0;0.213;0.9;!
6.900;23.107;6.900;460.0;0;0.215;0.9;!
6.920;22.848;6.920;461.2;0;0.214;0.9;!
6.940;22.751;6.940;462.3;0;0.213;0.9;!
6.960;22.724;6.960;463.4;0;0.213;0.9;!
6.980;22.660;6.980;464.5;0;0.209;0.9;!
7.000;22.569;7.000;465.6;0;0.207;0.9;!
7.020;22.530;7.020;466.7;0;0.203;0.9;!
7.040;22.538;7.040;467.8;0;0.200;0.8;!
7.060;22.537;7.060;468.8;0;0.197;0.8;!
7.080;22.410;7.080;469.7;0;0.196;0.8;!
7.100;22.260;7.100;470.6;0;0.195;0.8;!
7.120;22.042;7.120;471.5;0;0.194;0.8;!
7.140;21.714;7.140;472.4;0;0.192;0.8;!
7.160;21.252;7.160;473.4;0;0.191;0.9;!
7.180;20.656;7.180;474.3;0;0.187;0.9;!
7.200;19.987;7.200;475.1;0;0.182;0.9;!
7.220;19.196;7.220;476.0;0;0.177;0.9;!
7.240;18.222;7.240;476.9;0;0.171;0.9;!
7.260;17.306;7.260;477.7;0;0.165;0.9;!
7.280;16.454;7.280;478.5;0;0.157;0.9;!
7.300;15.696;7.300;479.4;0;0.150;0.9;!
7.320;15.034;7.320;480.2;0;0.140;0.8;!
7.340;14.435;7.340;481.0;0;0.131;0.8;!
7.360;14.007;7.360;481.9;0;0.122;0.8;!
7.380;13.735;7.380;482.7;0;0.115;0.8;!
7.400;13.654;7.400;483.6;0;0.109;0.7;!
7.420;13.649;7.420;484.5;0;0.100;0.7;!
7.440;13.700;7.440;485.3;0;0.093;0.6;!
7.460;13.848;7.460;486.2;0;0.088;0.6;!
7.480;14.079;7.480;487.0;0;0.086;0.6;!
7.500;14.172;7.500;487.8;0;0.086;0.6;!
7.520;14.193;7.520;488.7;0;0.086;0.6;!
7.540;14.169;7.540;489.5;0;0.089;0.6;!
7.560;14.148;7.560;490.3;0;0.089;0.6;!
7.580;14.174;7.580;491.1;0;0.089;0.6;!
7.600;14.257;7.600;491.9;0;0.090;0.6;!
7.620;14.301;7.620;492.8;0;0.092;0.6;!
7.640;14.362;7.640;493.7;0;0.092;0.6;!
7.660;14.458;7.660;494.5;0;0.093;0.6;!
7.680;14.531;7.680;495.4;0;0.093;0.6;!
7.700;14.577;7.700;496.2;0;0.092;0.6;!
7.720;14.695;7.720;497.1;0;0.091;0.6;!
7.740;14.939;7.740;497.9;0;0.090;0.6;!
7.760;15.492;7.760;500.1;0;0.090;0.6;!
7.780;16.080;7.780;502.3;0;0.090;0.5;!
7.800;16.667;7.800;504.6;0;0.092;0.5;!
7.820;17.254;7.820;506.9;0;0.095;0.5;!
7.840;17.842;7.840;509.2;0;0.101;0.5;!
7.860;18.476;7.860;511.2;0;0.107;0.5;!
7.880;19.286;7.880;512.0;0;0.113;0.6;!
7.900;19.840;7.900;512.9;0;0.118;0.6;!
7.920;20.431;7.920;513.7;0;0.124;0.6;!
7.940;21.209;7.940;514.6;0;0.132;0.6;!
7.960;22.003;7.960;515.5;0;0.142;0.6;!
7.980;22.585;7.980;516.3;0;0.151;0.7;!
8.000;22.817;8.000;517.2;0;0.160;0.7;!
8.020;22.627;8.020;518.0;0;0.168;0.7;!
8.040;22.108;8.040;518.8;0;0.176;0.7;!
8.060;21.668;8.060;519.6;0;0.180;0.8;!
8.080;21.350;8.080;520.4;0;0.184;0.8;!
8.100;21.126;8.100;521.2;0;0.186;0.8;!
8.120;20.885;8.120;522.1;0;0.187;0.8;!
8.140;20.489;8.140;523.0;0;0.187;0.9;!
8.160;20.108;8.160;523.8;0;0.187;0.9;!
8.180;19.855;8.180;524.7;0;0.188;0.9;!
8.200;19.605;8.200;525.5;0;0.188;0.9;!
8.220;19.297;8.220;526.4;0;0.188;0.9;!
8.240;18.926;8.240;527.2;0;0.185;0.9;!
8.260;18.506;8.260;528.0;0;0.181;0.9;!
8.280;18.282;8.280;528.8;0;0.178;0.9;!
8.300;18.225;8.300;529.6;0;0.173;0.9;!
8.320;18.331;8.320;530.4;0;0.169;0.8;!
8.340;18.647;8.340;531.2;0;0.168;0.8;!
8.360;19.234;8.360;532.0;0;0.170;0.8;!
8.380;19.981;8.380;532.9;0;0.172;0.8;!
8.400;20.577;8.400;533.8;0;0.175;0.8;!
8.420;20.902;8.420;534.7;0;0.180;0.8;!
8.440;20.988;8.440;535.5;0;0.184;0.9;!
8.460;20.857;8.460;536.4;0;0.187;0.9;!
8.480;20.552;8.480;537.2;0;0.190;0.9;!
8.500;20.151;8.500;538.0;0;0.193;0.9;!
8.520;19.975;8.520;538.9;0;0.195;0.9;!
8.540;19.980;8.540;539.7;0;0.196;0.9;!
8.560;20.038;8.560;540.5;0;0.194;0.9;!
8.580;20.141;8.580;541.3;0;0.192;0.9;!
8.600;20.321;8.600;542.1;0;0.191;0.9;!
8.620;20.624;8.620;543.0;0;0.192;0.9;!
8.640;20.922;8.640;543.8;0;0.193;0.9;!
8.660;20.883;8.660;544.7;0;0.195;0.9;!
8.680;20.410;8.680;545.6;0;0.199;0.9;!
8.700;19.685;8.700;546.5;0;0.191;0.9;!
8.720;18.927;8.720;547.3;0;0.181;0.9;!
8.740;18.284;8.740;548.1;0;0.171;0.8;!
8.760;17.837;8.760;548.9;0;0.162;0.8;!
8.780;17.869;8.780;551.4;0;0.161;0.8;!
8.800;17.984;8.800;554.2;0;0.161;0.8;!
8.820;18.100;8.820;557.0;0;0.159;0.8;!
8.840;18.216;8.840;559.9;0;0.157;0.8;!
8.860;18.603;8.860;561.5;0;0.159;0.8;!
8.880;19.148;8.880;562.5;0;0.165;0.8;!
8.900;19.575;8.900;563.4;0;0.169;0.8;!
8.920;19.738;8.920;564.3;0;0.173;0.9;!
8.940;19.527;8.940;565.3;0;0.177;0.9;!
8.960;19.055;8.960;566.1;0;0.178;0.9;!
8.980;18.507;8.980;567.0;0;0.178;0.9;!
9.000;18.119;9.000;567.9;0;0.177;0.9;!
9.020;17.805;9.020;568.8;0;0.176;0.9;!
9.040;17.509;9.040;569.6;0;0.173;0.9;!
9.060;17.213;9.060;570.5;0;0.170;0.9;!
9.080;16.917;9.080;571.3;0;0.167;0.9;!
9.100;16.649;9.100;572.2;0;0.165;0.9;!
9.120;16.457;9.120;573.0;0;0.163;0.9;!
9.140;16.322;9.140;574.0;0;0.162;0.9;!
9.160;16.198;9.160;574.9;0;0.160;0.9;!
9.180;16.084;9.180;575.7;0;0.159;0.9;!
9.200;15.995;9.200;576.6;0;0.159;0.9;!
9.220;15.944;9.220;577.5;0;0.158;0.9;!
9.240;15.918;9.240;578.3;0;0.156;0.9;!
9.260;15.893;9.260;579.2;0;0.154;0.9;!
9.280;15.858;9.280;580.0;0;0.152;0.9;!
9.300;15.803;9.300;580.9;0;0.149;0.9;!
9.320;15.759;9.320;581.7;0;0.148;0.9;!
9.340;15.759;9.340;582.6;0;0.147;0.9;!
9.360;15.777;9.360;583.4;0;0.145;0.9;!
9.380;15.620;9.380;584.3;0;0.131;0.8;!
9.400;15.042;9.400;585.2;0;0.126;0.8;!
9.420;14.145;9.420;586.1;0;0.124;0.8;!
9.440;13.232;9.440;586.9;0;0.122;0.8;!
9.460;12.995;9.460;587.8;0;0.116;0.8;!
9.480;12.505;9.480;588.6;0;0.115;0.8;!
9.500;11.968;9.500;589.4;0;0.118;0.9;!
9.520;11.559;9.520;590.2;0;0.123;1.0;!
9.540;11.252;9.540;591.0;0;0.128;1.0;!
9.560;10.985;9.560;591.8;0;0.126;1.1;!
9.580;10.733;9.580;592.5;0;0.123;1.1;!
9.600;10.519;9.600;593.3;0;0.120;1.1;!
9.620;10.345;9.620;594.1;0;0.118;1.1;!
9.640;10.142;9.640;595.0;0;0.115;1.1;!
9.660;9.919;9.660;595.8;0;0.113;1.1;!
9.680;9.669;9.680;596.6;0;0.113;1.1;!
9.700;9.420;9.700;597.4;0;0.109;1.1;!
9.720;9.194;9.720;598.2;0;0.104;1.0;!
9.740;9.035;9.740;598.9;0;0.098;1.0;!
9.760;8.959;9.760;599.7;0;0.093;0.9;!
9.780;8.998;9.780;601.5;0;0.090;0.9;!
9.800;9.107;9.800;604.0;0;0.096;1.0;!
9.820;9.215;9.820;606.4;0;0.098;1.0;!
9.840;9.324;9.840;608.9;0;0.100;1.0;!
9.860;9.435;9.860;611.1;0;0.103;1.0;!
9.880;9.557;9.880;612.0;0;0.105;1.1;!
9.900;9.516;9.900;612.8;0;9.999;999.9;!
9.920;9.435;9.920;613.7;0;9.999;999.9;!
9.940;9.402;9.940;614.5;0;9.999;999.9;!
9.960;9.374;9.960;615.3;0;9.999;999.9;!
9.980;9.317;9.970;616.0;0;9.999;999.9;!
